[gd_scene load_steps=5 format=3 uid="uid://cam1xgba8bbre"]

[ext_resource type="PackedScene" uid="uid://b06xxdjoohon4" path="res://character/character.tscn" id="1_q1e5n"]

[sub_resource type="QuadMesh" id="QuadMesh_d0csp"]

[sub_resource type="StandardMaterial3D" id="StandardMaterial3D_k4lun"]
albedo_color = Color(0.164706, 0.164706, 1, 1)

[sub_resource type="BoxShape3D" id="BoxShape3D_xmcxk"]

[node name="World" type="Node3D"]

[node name="base_test" type="CSGMesh3D" parent="."]
transform = Transform3D(5.44502, 0, 0, 0, -2.35955e-07, 0.999521, 0, -5.39802, -4.36904e-08, 0, -0.762012, 0)
mesh = SubResource("QuadMesh_d0csp")
material = SubResource("StandardMaterial3D_k4lun")

[node name="StaticBody3D" type="StaticBody3D" parent="base_test"]
transform = Transform3D(1, 0, 0, 0, 1, 8.88178e-16, 0, -2.84217e-14, 1, 0, 1.41858e-09, -0.175268)

[node name="CollisionShape3D" type="CollisionShape3D" parent="base_test/StaticBody3D"]
transform = Transform3D(1, 0, 0, 0, -4.37114e-08, 1, 0, -0.999999, -4.37112e-08, 0, 6.51954e-10, -0.0805497)
shape = SubResource("BoxShape3D_xmcxk")

[node name="character" parent="." instance=ExtResource("1_q1e5n")]
